<font>
  <info face="helvetica_light_i" size="60" bold="0" italic="0" charset="" unicode="" stretchH="100" smooth="1" aa="1" padding="2,2,2,2" spacing="0,0" outline="0"/>
  <common lineHeight="60" base="46" scaleW="297" scaleH="506" pages="1" packed="0"/>
  <pages>
    <page id="0" file="helvetica_light_i.png"/>
  </pages>
  <chars count="91">
    <char id="65" x="2" y="2" width="39" height="44" xoffset="1" yoffset="6" xadvance="40" page="0" chnl="15"/>
    <char id="66" x="2" y="48" width="37" height="44" xoffset="5" yoffset="6" xadvance="40" page="0" chnl="15"/>
    <char id="67" x="2" y="94" width="40" height="46" xoffset="6" yoffset="5" xadvance="43" page="0" chnl="15"/>
    <char id="68" x="41" y="48" width="41" height="44" xoffset="5" yoffset="6" xadvance="43" page="0" chnl="15"/>
    <char id="69" x="43" y="2" width="38" height="44" xoffset="5" yoffset="6" xadvance="37" page="0" chnl="15"/>
    <char id="70" x="83" y="2" width="37" height="44" xoffset="4" yoffset="6" xadvance="33" page="0" chnl="15"/>
    <char id="71" x="2" y="142" width="42" height="46" xoffset="7" yoffset="5" xadvance="47" page="0" chnl="15"/>
    <char id="72" x="44" y="94" width="43" height="44" xoffset="5" yoffset="6" xadvance="43" page="0" chnl="15"/>
    <char id="73" x="84" y="48" width="14" height="44" xoffset="6" yoffset="6" xadvance="17" page="0" chnl="15"/>
    <char id="74" x="2" y="190" width="31" height="45" xoffset="3" yoffset="6" xadvance="30" page="0" chnl="15"/>
    <char id="75" x="2" y="237" width="40" height="44" xoffset="5" yoffset="6" xadvance="40" page="0" chnl="15"/>
    <char id="76" x="35" y="190" width="28" height="44" xoffset="5" yoffset="6" xadvance="33" page="0" chnl="15"/>
    <char id="77" x="46" y="140" width="50" height="44" xoffset="5" yoffset="6" xadvance="50" page="0" chnl="15"/>
    <char id="78" x="89" y="94" width="43" height="44" xoffset="5" yoffset="6" xadvance="43" page="0" chnl="15"/>
    <char id="79" x="122" y="2" width="42" height="46" xoffset="7" yoffset="5" xadvance="47" page="0" chnl="15"/>
    <char id="80" x="2" y="283" width="37" height="44" xoffset="5" yoffset="6" xadvance="37" page="0" chnl="15"/>
    <char id="81" x="2" y="329" width="43" height="48" xoffset="6" yoffset="5" xadvance="47" page="0" chnl="15"/>
    <char id="82" x="41" y="283" width="39" height="44" xoffset="5" yoffset="6" xadvance="40" page="0" chnl="15"/>
    <char id="83" x="65" y="186" width="36" height="46" xoffset="5" yoffset="5" xadvance="37" page="0" chnl="15"/>
    <char id="84" x="98" y="140" width="33" height="44" xoffset="9" yoffset="6" xadvance="33" page="0" chnl="15"/>
    <char id="85" x="44" y="236" width="40" height="45" xoffset="8" yoffset="6" xadvance="43" page="0" chnl="15"/>
    <char id="86" x="2" y="379" width="35" height="44" xoffset="10" yoffset="6" xadvance="37" page="0" chnl="15"/>
    <char id="87" x="2" y="425" width="52" height="44" xoffset="10" yoffset="6" xadvance="53" page="0" chnl="15"/>
    <char id="88" x="39" y="379" width="43" height="44" xoffset="1" yoffset="6" xadvance="37" page="0" chnl="15"/>
    <char id="89" x="47" y="329" width="36" height="44" xoffset="10" yoffset="6" xadvance="37" page="0" chnl="15"/>
    <char id="90" x="82" y="283" width="42" height="44" xoffset="2" yoffset="6" xadvance="37" page="0" chnl="15"/>
    <char id="97" x="2" y="471" width="30" height="33" xoffset="4" yoffset="17" xadvance="33" page="0" chnl="15"/>
    <char id="98" x="86" y="234" width="33" height="44" xoffset="5" yoffset="6" xadvance="37" page="0" chnl="15"/>
    <char id="99" x="34" y="471" width="29" height="33" xoffset="5" yoffset="17" xadvance="33" page="0" chnl="15"/>
    <char id="100" x="56" y="425" width="36" height="44" xoffset="6" yoffset="6" xadvance="37" page="0" chnl="15"/>
    <char id="101" x="65" y="471" width="30" height="33" xoffset="5" yoffset="17" xadvance="33" page="0" chnl="15"/>
    <char id="102" x="100" y="48" width="19" height="44" xoffset="6" yoffset="5" xadvance="17" page="0" chnl="15"/>
    <char id="103" x="103" y="186" width="36" height="45" xoffset="3" yoffset="17" xadvance="37" page="0" chnl="15"/>
    <char id="104" x="133" y="140" width="30" height="44" xoffset="4" yoffset="6" xadvance="33" page="0" chnl="15"/>
    <char id="105" x="121" y="233" width="13" height="44" xoffset="5" yoffset="6" xadvance="13" page="0" chnl="15"/>
    <char id="106" x="134" y="50" width="21" height="56" xoffset="-2" yoffset="6" xadvance="13" page="0" chnl="15"/>
    <char id="107" x="84" y="375" width="31" height="44" xoffset="4" yoffset="6" xadvance="30" page="0" chnl="15"/>
    <char id="108" x="85" y="329" width="13" height="44" xoffset="5" yoffset="6" xadvance="13" page="0" chnl="15"/>
    <char id="109" x="100" y="329" width="47" height="32" xoffset="4" yoffset="17" xadvance="50" page="0" chnl="15"/>
    <char id="110" x="126" y="279" width="30" height="32" xoffset="4" yoffset="17" xadvance="33" page="0" chnl="15"/>
    <char id="111" x="136" y="233" width="31" height="33" xoffset="5" yoffset="17" xadvance="33" page="0" chnl="15"/>
    <char id="112" x="141" y="186" width="35" height="45" xoffset="2" yoffset="17" xadvance="37" page="0" chnl="15"/>
    <char id="113" x="94" y="421" width="33" height="45" xoffset="6" yoffset="17" xadvance="37" page="0" chnl="15"/>
    <char id="114" x="97" y="468" width="21" height="32" xoffset="5" yoffset="17" xadvance="20" page="0" chnl="15"/>
    <char id="115" x="120" y="468" width="27" height="33" xoffset="4" yoffset="17" xadvance="30" page="0" chnl="15"/>
    <char id="116" x="117" y="363" width="16" height="41" xoffset="6" yoffset="9" xadvance="17" page="0" chnl="15"/>
    <char id="117" x="129" y="406" width="30" height="32" xoffset="6" yoffset="18" xadvance="33" page="0" chnl="15"/>
    <char id="118" x="135" y="363" width="28" height="31" xoffset="8" yoffset="18" xadvance="30" page="0" chnl="15"/>
    <char id="119" x="149" y="313" width="42" height="31" xoffset="8" yoffset="18" xadvance="43" page="0" chnl="15"/>
    <char id="120" x="158" y="268" width="34" height="31" xoffset="1" yoffset="18" xadvance="30" page="0" chnl="15"/>
    <char id="121" x="149" y="440" width="34" height="44" xoffset="2" yoffset="18" xadvance="30" page="0" chnl="15"/>
    <char id="122" x="169" y="233" width="32" height="31" xoffset="2" yoffset="18" xadvance="30" page="0" chnl="15"/>
    <char id="48" x="157" y="50" width="32" height="43" xoffset="5" yoffset="7" xadvance="33" page="0" chnl="15"/>
    <char id="49" x="157" y="95" width="17" height="43" xoffset="14" yoffset="7" xadvance="33" page="0" chnl="15"/>
    <char id="50" x="165" y="140" width="35" height="43" xoffset="3" yoffset="7" xadvance="33" page="0" chnl="15"/>
    <char id="51" x="176" y="95" width="32" height="43" xoffset="4" yoffset="7" xadvance="33" page="0" chnl="15"/>
    <char id="52" x="161" y="396" width="30" height="42" xoffset="4" yoffset="7" xadvance="33" page="0" chnl="15"/>
    <char id="53" x="178" y="185" width="33" height="43" xoffset="4" yoffset="7" xadvance="33" page="0" chnl="15"/>
    <char id="54" x="202" y="140" width="32" height="43" xoffset="5" yoffset="7" xadvance="33" page="0" chnl="15"/>
    <char id="55" x="166" y="2" width="31" height="42" xoffset="9" yoffset="7" xadvance="33" page="0" chnl="15"/>
    <char id="56" x="191" y="46" width="32" height="44" xoffset="4" yoffset="7" xadvance="33" page="0" chnl="15"/>
    <char id="57" x="210" y="92" width="32" height="43" xoffset="5" yoffset="7" xadvance="33" page="0" chnl="15"/>
    <char id="33" x="165" y="346" width="14" height="44" xoffset="8" yoffset="6" xadvance="20" page="0" chnl="15"/>
    <char id="8470" x="199" y="2" width="30" height="42" xoffset="9" yoffset="7" xadvance="39" page="0" chnl="15"/>
    <char id="59" x="225" y="46" width="13" height="38" xoffset="4" yoffset="20" xadvance="17" page="0" chnl="15"/>
    <char id="37" x="181" y="346" width="42" height="43" xoffset="10" yoffset="7" xadvance="53" page="0" chnl="15"/>
    <char id="58" x="134" y="108" width="11" height="30" xoffset="6" yoffset="20" xadvance="17" page="0" chnl="15"/>
    <char id="63" x="185" y="440" width="27" height="45" xoffset="9" yoffset="5" xadvance="30" page="0" chnl="15"/>
    <char id="42" x="129" y="440" width="18" height="18" xoffset="10" yoffset="6" xadvance="23" page="0" chnl="15"/>
    <char id="40" x="194" y="266" width="21" height="56" xoffset="6" yoffset="5" xadvance="20" page="0" chnl="15"/>
    <char id="41" x="213" y="185" width="21" height="56" xoffset="1" yoffset="5" xadvance="20" page="0" chnl="15"/>
    <char id="95" x="181" y="391" width="31" height="3" xoffset="-2" yoffset="54" xadvance="30" page="0" chnl="15"/>
    <char id="43" x="231" y="2" width="31" height="30" xoffset="8" yoffset="19" xadvance="40" page="0" chnl="15"/>
    <char id="45" x="225" y="86" width="16" height="4" xoffset="5" yoffset="32" xadvance="20" page="0" chnl="15"/>
    <char id="61" x="149" y="486" width="34" height="16" xoffset="6" yoffset="27" xadvance="40" page="0" chnl="15"/>
    <char id="46" x="129" y="460" width="6" height="6" xoffset="6" yoffset="44" xadvance="17" page="0" chnl="15"/>
    <char id="44" x="126" y="313" width="8" height="14" xoffset="4" yoffset="44" xadvance="17" page="0" chnl="15"/>
    <char id="47" x="240" y="34" width="28" height="50" xoffset="-1" yoffset="5" xadvance="17" page="0" chnl="15"/>
    <char id="124" x="217" y="243" width="3" height="66" xoffset="15" yoffset="0" xadvance="24" page="0" chnl="15"/>
    <char id="92" x="222" y="243" width="7" height="50" xoffset="9" yoffset="5" xadvance="17" page="0" chnl="15"/>
    <char id="34" x="149" y="346" width="13" height="14" xoffset="10" yoffset="6" xadvance="17" page="0" chnl="15"/>
    <char id="39" x="136" y="313" width="6" height="14" xoffset="11" yoffset="6" xadvance="13" page="0" chnl="15"/>
    <char id="64" x="222" y="295" width="46" height="46" xoffset="6" yoffset="5" xadvance="48" page="0" chnl="15"/>
    <char id="35" x="193" y="396" width="34" height="42" xoffset="5" yoffset="7" xadvance="33" page="0" chnl="15"/>
    <char id="36" x="214" y="440" width="33" height="52" xoffset="5" yoffset="3" xadvance="33" page="0" chnl="15"/>
    <char id="94" x="264" y="2" width="31" height="28" xoffset="8" yoffset="7" xadvance="40" page="0" chnl="15"/>
    <char id="38" x="231" y="243" width="35" height="45" xoffset="4" yoffset="6" xadvance="40" page="0" chnl="15"/>
    <char id="123" x="229" y="343" width="19" height="56" xoffset="6" yoffset="5" xadvance="20" page="0" chnl="15"/>
    <char id="125" x="236" y="137" width="20" height="56" xoffset="1" yoffset="5" xadvance="20" page="0" chnl="15"/>
    <char id="91" x="249" y="401" width="24" height="56" xoffset="3" yoffset="5" xadvance="20" page="0" chnl="15"/>
    <char id="93" x="250" y="343" width="24" height="56" xoffset="1" yoffset="5" xadvance="20" page="0" chnl="15"/>
    <char id="32" x="0" y="0" width="0" height="0" xoffset="1" yoffset="5" xadvance="17" page="0" chnl="15"/>
  </chars>
</font>