<font>
  <info face="st_955" size="8" bold="0" italic="0" charset="" unicode="" stretchH="100" smooth="1" aa="1" padding="1,1,1,1" spacing="0,0" outline="0"/>
  <common lineHeight="15" base="12" scaleW="128" scaleH="128" pages="1" packed="0"/>
  <chars count="210">
    <char id="97" x="1" y="1" width="5" height="6" xoffset="0" yoffset="7" xadvance="6"/>
    <char id="98" x="1" y="8" width="5" height="9" xoffset="0" yoffset="4" xadvance="6"/>
    <char id="99" x="1" y="18" width="5" height="6" xoffset="0" yoffset="7" xadvance="6"/>
    <char id="100" x="1" y="25" width="5" height="9" xoffset="0" yoffset="4" xadvance="6"/>
    <char id="101" x="1" y="35" width="5" height="6" xoffset="0" yoffset="7" xadvance="6"/>
    <char id="102" x="1" y="42" width="3" height="9" xoffset="0" yoffset="4" xadvance="4"/>
    <char id="103" x="1" y="52" width="5" height="9" xoffset="0" yoffset="7" xadvance="6"/>
    <char id="104" x="5" y="42" width="5" height="9" xoffset="0" yoffset="4" xadvance="6"/>
    <char id="105" x="7" y="1" width="1" height="9" xoffset="0" yoffset="4" xadvance="2"/>
    <char id="106" x="7" y="11" width="2" height="12" xoffset="0" yoffset="4" xadvance="3"/>
    <char id="107" x="9" y="1" width="5" height="9" xoffset="0" yoffset="4" xadvance="6"/>
    <char id="108" x="7" y="24" width="1" height="9" xoffset="0" yoffset="4" xadvance="2"/>
    <char id="109" x="7" y="34" width="9" height="6" xoffset="0" yoffset="7" xadvance="10"/>
    <char id="110" x="9" y="24" width="5" height="6" xoffset="0" yoffset="7" xadvance="6"/>
    <char id="111" x="10" y="11" width="5" height="6" xoffset="0" yoffset="7" xadvance="6"/>
    <char id="112" x="15" y="1" width="5" height="9" xoffset="0" yoffset="7" xadvance="6"/>
    <char id="113" x="15" y="18" width="5" height="9" xoffset="0" yoffset="7" xadvance="6"/>
    <char id="114" x="16" y="11" width="4" height="6" xoffset="0" yoffset="7" xadvance="5"/>
    <char id="115" x="1" y="62" width="4" height="6" xoffset="0" yoffset="7" xadvance="5"/>
    <char id="116" x="1" y="69" width="3" height="9" xoffset="0" yoffset="4" xadvance="4"/>
    <char id="117" x="1" y="79" width="5" height="6" xoffset="0" yoffset="7" xadvance="6"/>
    <char id="118" x="5" y="69" width="5" height="6" xoffset="0" yoffset="7" xadvance="6"/>
    <char id="119" x="6" y="62" width="9" height="6" xoffset="0" yoffset="7" xadvance="10"/>
    <char id="120" x="7" y="52" width="5" height="6" xoffset="0" yoffset="7" xadvance="6"/>
    <char id="121" x="11" y="41" width="5" height="9" xoffset="0" yoffset="7" xadvance="6"/>
    <char id="122" x="13" y="51" width="5" height="6" xoffset="0" yoffset="7" xadvance="6"/>
    <char id="65" x="17" y="28" width="6" height="9" xoffset="0" yoffset="4" xadvance="7"/>
    <char id="66" x="17" y="38" width="6" height="9" xoffset="0" yoffset="4" xadvance="7"/>
    <char id="67" x="21" y="1" width="6" height="9" xoffset="0" yoffset="4" xadvance="7"/>
    <char id="68" x="21" y="11" width="6" height="9" xoffset="0" yoffset="4" xadvance="7"/>
    <char id="69" x="1" y="86" width="6" height="9" xoffset="0" yoffset="4" xadvance="7"/>
    <char id="70" x="7" y="76" width="6" height="9" xoffset="0" yoffset="4" xadvance="7"/>
    <char id="71" x="1" y="96" width="6" height="9" xoffset="0" yoffset="4" xadvance="7"/>
    <char id="72" x="1" y="106" width="6" height="9" xoffset="0" yoffset="4" xadvance="7"/>
    <char id="73" x="1" y="116" width="1" height="9" xoffset="0" yoffset="4" xadvance="2"/>
    <char id="74" x="3" y="116" width="5" height="9" xoffset="0" yoffset="4" xadvance="6"/>
    <char id="75" x="8" y="86" width="6" height="9" xoffset="0" yoffset="4" xadvance="7"/>
    <char id="76" x="14" y="69" width="5" height="9" xoffset="0" yoffset="4" xadvance="6"/>
    <char id="77" x="16" y="58" width="7" height="9" xoffset="0" yoffset="4" xadvance="8"/>
    <char id="78" x="19" y="48" width="6" height="9" xoffset="0" yoffset="4" xadvance="7"/>
    <char id="79" x="8" y="96" width="6" height="9" xoffset="0" yoffset="4" xadvance="7"/>
    <char id="80" x="8" y="106" width="6" height="9" xoffset="0" yoffset="4" xadvance="7"/>
    <char id="81" x="9" y="116" width="6" height="10" xoffset="0" yoffset="4" xadvance="7"/>
    <char id="82" x="24" y="21" width="6" height="9" xoffset="0" yoffset="4" xadvance="7"/>
    <char id="83" x="24" y="31" width="6" height="9" xoffset="0" yoffset="4" xadvance="7"/>
    <char id="84" x="28" y="1" width="5" height="9" xoffset="0" yoffset="4" xadvance="6"/>
    <char id="85" x="28" y="11" width="6" height="9" xoffset="0" yoffset="4" xadvance="7"/>
    <char id="86" x="34" y="1" width="7" height="9" xoffset="0" yoffset="4" xadvance="8"/>
    <char id="87" x="15" y="79" width="9" height="9" xoffset="0" yoffset="4" xadvance="10"/>
    <char id="88" x="20" y="68" width="7" height="9" xoffset="0" yoffset="4" xadvance="8"/>
    <char id="89" x="24" y="58" width="7" height="9" xoffset="0" yoffset="4" xadvance="8"/>
    <char id="90" x="26" y="41" width="5" height="9" xoffset="0" yoffset="4" xadvance="6"/>
    <char id="48" x="31" y="21" width="6" height="9" xoffset="0" yoffset="4" xadvance="7"/>
    <char id="49" x="35" y="11" width="2" height="9" xoffset="0" yoffset="4" xadvance="3"/>
    <char id="50" x="31" y="31" width="6" height="9" xoffset="0" yoffset="4" xadvance="7"/>
    <char id="51" x="15" y="89" width="6" height="9" xoffset="0" yoffset="4" xadvance="7"/>
    <char id="52" x="15" y="99" width="6" height="9" xoffset="0" yoffset="4" xadvance="7"/>
    <char id="53" x="16" y="109" width="6" height="9" xoffset="0" yoffset="4" xadvance="7"/>
    <char id="54" x="22" y="89" width="6" height="9" xoffset="0" yoffset="4" xadvance="7"/>
    <char id="55" x="22" y="99" width="6" height="9" xoffset="0" yoffset="4" xadvance="7"/>
    <char id="56" x="25" y="78" width="6" height="9" xoffset="0" yoffset="4" xadvance="7"/>
    <char id="57" x="28" y="68" width="6" height="9" xoffset="0" yoffset="4" xadvance="7"/>
    <char id="33" x="23" y="109" width="1" height="9" xoffset="1" yoffset="4" xadvance="3"/>
    <char id="8221" x="9" y="31" width="3" height="2" xoffset="0" yoffset="4" xadvance="4"/>
    <char id="35" x="16" y="119" width="7" height="7" xoffset="0" yoffset="5" xadvance="8"/>
    <char id="36" x="25" y="109" width="5" height="11" xoffset="0" yoffset="3" xadvance="6"/>
    <char id="37" x="29" y="88" width="7" height="9" xoffset="0" yoffset="4" xadvance="8"/>
    <char id="38" x="32" y="78" width="6" height="9" xoffset="0" yoffset="4" xadvance="7"/>
    <char id="8217" x="5" y="76" width="1" height="2" xoffset="0" yoffset="4" xadvance="2"/>
    <char id="40" x="32" y="41" width="3" height="11" xoffset="0" yoffset="3" xadvance="4"/>
    <char id="41" x="32" y="53" width="3" height="11" xoffset="0" yoffset="3" xadvance="4"/>
    <char id="42" x="26" y="51" width="5" height="5" xoffset="0" yoffset="6" xadvance="6"/>
    <char id="43" x="24" y="121" width="5" height="5" xoffset="0" yoffset="6" xadvance="6"/>
    <char id="44" x="13" y="58" width="2" height="3" xoffset="0" yoffset="12" xadvance="3"/>
    <char id="45" x="7" y="59" width="5" height="1" xoffset="0" yoffset="8" xadvance="6"/>
    <char id="46" x="17" y="48" width="1" height="1" xoffset="0" yoffset="12" xadvance="2"/>
    <char id="47" x="29" y="98" width="5" height="10" xoffset="0" yoffset="3" xadvance="6"/>
    <char id="58" x="15" y="28" width="1" height="4" xoffset="1" yoffset="7" xadvance="3"/>
    <char id="59" x="35" y="65" width="2" height="8" xoffset="0" yoffset="7" xadvance="3"/>
    <char id="60" x="31" y="109" width="4" height="7" xoffset="0" yoffset="5" xadvance="5"/>
    <char id="61" x="35" y="74" width="5" height="3" xoffset="0" yoffset="7" xadvance="6"/>
    <char id="62" x="35" y="98" width="4" height="7" xoffset="0" yoffset="5" xadvance="5"/>
    <char id="63" x="37" y="88" width="5" height="9" xoffset="0" yoffset="4" xadvance="6"/>
    <char id="64" x="39" y="78" width="8" height="8" xoffset="0" yoffset="6" xadvance="9"/>
    <char id="91" x="36" y="106" width="2" height="11" xoffset="0" yoffset="3" xadvance="3"/>
    <char id="92" x="39" y="106" width="5" height="10" xoffset="0" yoffset="3" xadvance="6"/>
    <char id="93" x="43" y="87" width="2" height="11" xoffset="0" yoffset="3" xadvance="3"/>
    <char id="94" x="40" y="99" width="5" height="3" xoffset="0" yoffset="5" xadvance="6"/>
    <char id="95" x="1" y="126" width="7" height="1" xoffset="0" yoffset="12" xadvance="8"/>
    <char id="96" x="32" y="65" width="2" height="2" xoffset="0" yoffset="4" xadvance="3"/>
    <char id="123" x="36" y="41" width="3" height="11" xoffset="0" yoffset="3" xadvance="4"/>
    <char id="124" x="36" y="53" width="1" height="11" xoffset="1" yoffset="3" xadvance="4"/>
    <char id="125" x="38" y="53" width="3" height="11" xoffset="0" yoffset="3" xadvance="4"/>
    <char id="126" x="40" y="103" width="6" height="2" xoffset="0" yoffset="4" xadvance="7"/>
    <char id="710" x="10" y="18" width="3" height="2" xoffset="0" yoffset="4" xadvance="4"/>
    <char id="732" x="30" y="121" width="6" height="2" xoffset="0" yoffset="4" xadvance="7"/>
    <char id="8211" x="10" y="21" width="4" height="1" xoffset="0" yoffset="8" xadvance="5"/>
    <char id="8212" x="31" y="118" width="6" height="1" xoffset="0" yoffset="8" xadvance="7"/>
    <char id="8216" x="13" y="31" width="1" height="2" xoffset="0" yoffset="4" xadvance="2"/>
    <char id="8218" x="11" y="69" width="2" height="3" xoffset="0" yoffset="12" xadvance="3"/>
    <char id="8220" x="30" y="124" width="3" height="2" xoffset="0" yoffset="4" xadvance="4"/>
    <char id="8222" x="34" y="124" width="5" height="3" xoffset="0" yoffset="12" xadvance="6"/>
    <char id="8224" x="38" y="118" width="3" height="5" xoffset="0" yoffset="6" xadvance="4"/>
    <char id="8225" x="42" y="117" width="3" height="10" xoffset="0" yoffset="4" xadvance="4"/>
    <char id="8226" x="38" y="65" width="3" height="3" xoffset="0" yoffset="7" xadvance="4"/>
    <char id="8230" x="38" y="69" width="5" height="1" xoffset="0" yoffset="12" xadvance="6"/>
    <char id="8240" x="45" y="106" width="9" height="9" xoffset="0" yoffset="4" xadvance="10"/>
    <char id="8249" x="21" y="21" width="2" height="3" xoffset="0" yoffset="7" xadvance="3"/>
    <char id="8250" x="41" y="71" width="2" height="3" xoffset="0" yoffset="7" xadvance="3"/>
    <char id="8482" x="46" y="116" width="9" height="4" xoffset="0" yoffset="4" xadvance="10"/>
    <char id="39" x="11" y="73" width="1" height="2" xoffset="0" yoffset="4" xadvance="2"/>
    <char id="34" x="41" y="75" width="3" height="2" xoffset="0" yoffset="4" xadvance="4"/>
    <char id="191" x="46" y="87" width="5" height="9" xoffset="0" yoffset="4" xadvance="6"/>
    <char id="161" x="38" y="11" width="1" height="9" xoffset="1" yoffset="4" xadvance="3"/>
    <char id="162" x="47" y="97" width="5" height="7" xoffset="0" yoffset="7" xadvance="6"/>
    <char id="163" x="38" y="21" width="5" height="9" xoffset="0" yoffset="4" xadvance="6"/>
    <char id="164" x="40" y="11" width="8" height="9" xoffset="0" yoffset="4" xadvance="9"/>
    <char id="165" x="42" y="1" width="7" height="9" xoffset="0" yoffset="4" xadvance="8"/>
    <char id="166" x="38" y="31" width="1" height="9" xoffset="1" yoffset="4" xadvance="4"/>
    <char id="167" x="40" y="31" width="5" height="9" xoffset="0" yoffset="4" xadvance="6"/>
    <char id="168" x="46" y="121" width="3" height="1" xoffset="0" yoffset="4" xadvance="4"/>
    <char id="169" x="44" y="21" width="8" height="8" xoffset="0" yoffset="5" xadvance="9"/>
    <char id="170" x="49" y="11" width="5" height="8" xoffset="0" yoffset="5" xadvance="6"/>
    <char id="171" x="46" y="123" width="5" height="3" xoffset="0" yoffset="7" xadvance="6"/>
    <char id="172" x="52" y="121" width="6" height="3" xoffset="0" yoffset="8" xadvance="7"/>
    <char id="173" x="52" y="125" width="5" height="1" xoffset="0" yoffset="8" xadvance="6"/>
    <char id="174" x="50" y="1" width="8" height="8" xoffset="0" yoffset="5" xadvance="9"/>
    <char id="175" x="58" y="125" width="5" height="1" xoffset="0" yoffset="4" xadvance="6"/>
    <char id="176" x="40" y="41" width="3" height="3" xoffset="0" yoffset="4" xadvance="4"/>
    <char id="177" x="40" y="45" width="5" height="6" xoffset="0" yoffset="7" xadvance="6"/>
    <char id="178" x="42" y="52" width="4" height="5" xoffset="0" yoffset="4" xadvance="5"/>
    <char id="179" x="42" y="58" width="4" height="5" xoffset="0" yoffset="4" xadvance="5"/>
    <char id="180" x="21" y="25" width="2" height="2" xoffset="0" yoffset="4" xadvance="3"/>
    <char id="181" x="44" y="64" width="6" height="9" xoffset="0" yoffset="7" xadvance="7"/>
    <char id="182" x="48" y="74" width="7" height="9" xoffset="0" yoffset="4" xadvance="8"/>
    <char id="183" x="50" y="121" width="1" height="1" xoffset="1" yoffset="8" xadvance="4"/>
    <char id="184" x="45" y="74" width="2" height="3" xoffset="0" yoffset="13" xadvance="3"/>
    <char id="185" x="52" y="84" width="2" height="5" xoffset="0" yoffset="4" xadvance="3"/>
    <char id="186" x="53" y="90" width="5" height="8" xoffset="0" yoffset="5" xadvance="6"/>
    <char id="187" x="44" y="41" width="5" height="3" xoffset="0" yoffset="7" xadvance="6"/>
    <char id="188" x="46" y="30" width="10" height="10" xoffset="0" yoffset="3" xadvance="11"/>
    <char id="189" x="55" y="99" width="11" height="10" xoffset="0" yoffset="3" xadvance="12"/>
    <char id="190" x="56" y="110" width="12" height="10" xoffset="0" yoffset="3" xadvance="13"/>
    <char id="192" x="47" y="45" width="6" height="12" xoffset="0" yoffset="1" xadvance="7"/>
    <char id="193" x="51" y="58" width="6" height="12" xoffset="0" yoffset="1" xadvance="7"/>
    <char id="194" x="54" y="41" width="6" height="12" xoffset="0" yoffset="1" xadvance="7"/>
    <char id="195" x="56" y="71" width="6" height="12" xoffset="0" yoffset="1" xadvance="7"/>
    <char id="196" x="59" y="84" width="6" height="11" xoffset="0" yoffset="2" xadvance="7"/>
    <char id="197" x="58" y="54" width="6" height="13" xoffset="0" yoffset="0" xadvance="7"/>
    <char id="198" x="53" y="20" width="9" height="9" xoffset="0" yoffset="4" xadvance="10"/>
    <char id="199" x="63" y="68" width="6" height="11" xoffset="0" yoffset="4" xadvance="7"/>
    <char id="200" x="66" y="80" width="6" height="12" xoffset="0" yoffset="1" xadvance="7"/>
    <char id="201" x="67" y="93" width="6" height="12" xoffset="0" yoffset="1" xadvance="7"/>
    <char id="202" x="59" y="1" width="6" height="12" xoffset="0" yoffset="1" xadvance="7"/>
    <char id="203" x="69" y="106" width="6" height="11" xoffset="0" yoffset="2" xadvance="7"/>
    <char id="204" x="61" y="30" width="2" height="12" xoffset="0" yoffset="1" xadvance="3"/>
    <char id="205" x="63" y="14" width="2" height="12" xoffset="0" yoffset="1" xadvance="2"/>
    <char id="206" x="64" y="27" width="3" height="12" xoffset="0" yoffset="1" xadvance="3"/>
    <char id="207" x="64" y="40" width="3" height="11" xoffset="0" yoffset="2" xadvance="3"/>
    <char id="208" x="69" y="118" width="7" height="9" xoffset="0" yoffset="4" xadvance="8"/>
    <char id="209" x="65" y="52" width="6" height="12" xoffset="0" yoffset="1" xadvance="7"/>
    <char id="210" x="70" y="65" width="6" height="12" xoffset="0" yoffset="1" xadvance="7"/>
    <char id="211" x="73" y="78" width="6" height="12" xoffset="0" yoffset="1" xadvance="7"/>
    <char id="212" x="74" y="91" width="6" height="12" xoffset="0" yoffset="1" xadvance="7"/>
    <char id="213" x="76" y="104" width="6" height="12" xoffset="0" yoffset="1" xadvance="7"/>
    <char id="214" x="66" y="1" width="6" height="11" xoffset="0" yoffset="2" xadvance="7"/>
    <char id="215" x="55" y="14" width="5" height="5" xoffset="0" yoffset="6" xadvance="6"/>
    <char id="216" x="77" y="117" width="6" height="9" xoffset="0" yoffset="4" xadvance="7"/>
    <char id="217" x="66" y="13" width="6" height="12" xoffset="0" yoffset="1" xadvance="7"/>
    <char id="218" x="68" y="26" width="6" height="12" xoffset="0" yoffset="1" xadvance="7"/>
    <char id="219" x="68" y="39" width="6" height="12" xoffset="0" yoffset="1" xadvance="7"/>
    <char id="220" x="72" y="52" width="6" height="11" xoffset="0" yoffset="2" xadvance="7"/>
    <char id="221" x="77" y="64" width="7" height="12" xoffset="0" yoffset="1" xadvance="8"/>
    <char id="222" x="80" y="77" width="5" height="12" xoffset="0" yoffset="4" xadvance="6"/>
    <char id="223" x="81" y="90" width="5" height="10" xoffset="0" yoffset="4" xadvance="6"/>
    <char id="224" x="83" y="101" width="5" height="9" xoffset="0" yoffset="4" xadvance="6"/>
    <char id="225" x="84" y="111" width="5" height="9" xoffset="0" yoffset="4" xadvance="6"/>
    <char id="226" x="73" y="1" width="5" height="9" xoffset="0" yoffset="4" xadvance="6"/>
    <char id="227" x="73" y="11" width="6" height="9" xoffset="0" yoffset="4" xadvance="6"/>
    <char id="228" x="79" y="1" width="5" height="8" xoffset="0" yoffset="5" xadvance="6"/>
    <char id="229" x="75" y="21" width="5" height="10" xoffset="0" yoffset="3" xadvance="6"/>
    <char id="230" x="84" y="121" width="9" height="6" xoffset="0" yoffset="7" xadvance="10"/>
    <char id="231" x="80" y="10" width="5" height="8" xoffset="0" yoffset="7" xadvance="6"/>
    <char id="232" x="75" y="32" width="5" height="9" xoffset="0" yoffset="4" xadvance="6"/>
    <char id="233" x="75" y="42" width="5" height="9" xoffset="0" yoffset="4" xadvance="6"/>
    <char id="234" x="79" y="52" width="5" height="9" xoffset="0" yoffset="4" xadvance="6"/>
    <char id="235" x="85" y="1" width="5" height="8" xoffset="0" yoffset="5" xadvance="6"/>
    <char id="236" x="61" y="43" width="2" height="9" xoffset="-1" yoffset="4" xadvance="2"/>
    <char id="237" x="57" y="30" width="2" height="9" xoffset="0" yoffset="4" xadvance="2"/>
    <char id="238" x="81" y="19" width="3" height="9" xoffset="-1" yoffset="4" xadvance="2"/>
    <char id="239" x="81" y="29" width="3" height="8" xoffset="-1" yoffset="5" xadvance="2"/>
    <char id="240" x="81" y="38" width="5" height="9" xoffset="0" yoffset="4" xadvance="6"/>
    <char id="241" x="85" y="19" width="6" height="9" xoffset="0" yoffset="4" xadvance="6"/>
    <char id="242" x="91" y="1" width="5" height="9" xoffset="0" yoffset="4" xadvance="6"/>
    <char id="243" x="85" y="48" width="5" height="9" xoffset="0" yoffset="4" xadvance="6"/>
    <char id="244" x="87" y="29" width="5" height="9" xoffset="0" yoffset="4" xadvance="6"/>
    <char id="245" x="92" y="11" width="6" height="9" xoffset="0" yoffset="4" xadvance="6"/>
    <char id="246" x="87" y="39" width="5" height="8" xoffset="0" yoffset="5" xadvance="6"/>
    <char id="247" x="86" y="11" width="5" height="5" xoffset="0" yoffset="6" xadvance="6"/>
    <char id="248" x="92" y="21" width="5" height="6" xoffset="0" yoffset="7" xadvance="6"/>
    <char id="249" x="97" y="1" width="5" height="9" xoffset="0" yoffset="4" xadvance="6"/>
    <char id="250" x="85" y="58" width="5" height="9" xoffset="0" yoffset="4" xadvance="6"/>
    <char id="251" x="86" y="68" width="5" height="9" xoffset="0" yoffset="4" xadvance="6"/>
    <char id="252" x="86" y="78" width="5" height="8" xoffset="0" yoffset="5" xadvance="6"/>
    <char id="253" x="87" y="87" width="5" height="11" xoffset="0" yoffset="4" xadvance="6"/>
    <char id="254" x="89" y="99" width="5" height="8" xoffset="0" yoffset="7" xadvance="6"/>
    <char id="255" x="90" y="108" width="5" height="11" xoffset="0" yoffset="5" xadvance="6"/>
    <char id="8260" x="91" y="48" width="5" height="10" xoffset="0" yoffset="3" xadvance="6"/>
    <char id="937" x="91" y="59" width="5" height="8" xoffset="0" yoffset="5" xadvance="6"/>
    <char id="13" x="92" y="68" width="3" height="12" xoffset="1" yoffset="1" xadvance="4"/>
    <char id="32" x="0" y="0" width="0" height="0" xoffset="1" yoffset="1" xadvance="4"/>
  </chars>
</font>